[gd_scene load_steps=4 format=2]

[ext_resource path="res://GalleryShooter/bullet.gd" type="Script" id=1]
[ext_resource path="res://GalleryShooter/boom.png" type="Texture" id=2]



[sub_resource type="CapsuleShape2D" id=1]
radius = 8.42439
height = 3.23463

[node name="BulletArea2D" type="Area2D"]
collision_mask = 2
script = ExtResource( 1 )
__meta__ = {
"_edit_group_": true
}

[node name="CollisionShape2D" type="CollisionShape2D" parent="."]
position = Vector2( -1.52588e-05, 1.62901 )
shape = SubResource( 1 )

[node name="Sprite" type="Sprite" parent="."]
position = Vector2( 0.494884, 0.448982 )
scale = Vector2( 0.0250669, 0.0337026 )
texture = ExtResource( 2 )
